R-map | 学海无涯
…
4 数据操作

4.1 gfc数据绑定

sf对象中有一列（gfc）,专门存贮空间属性数据，在对sf对象数据进行操作时，默认是不能排除gfc列的。

china_dat %>% select(1) #绑定

## Simple feature collection with 36 features and 1 field
## Geometry type: GEOMETRY
## Dimension:     XY
## Bounding box:  xmin: 73.50078 ymin: 3.553559 xmax: 134.7752 ymax: 53.56082
## Geodetic CRS:  WGS 84
## # A tibble: 36 x 2
##    Name_Province                                                        geometry
##    <chr>                                                 <GEOMETRY [arc_degree]>
##  1 安徽省         POLYGON ((119.1702 31.2955, 119.1528 31.29677, 119.1429 31.27~
##  2 澳门特别行政区 MULTIPOLYGON (((113.5348 22.19369, 113.5325 22.17929, 113.549~
##  3 北京市         POLYGON ((115.961 40.2643, 115.9576 40.25636, 115.9365 40.252~
##  4 福建省         MULTIPOLYGON (((119.4823 25.35403, 119.4669 25.34719, 119.464~
##  5 甘肃省         POLYGON ((104.0702 33.67677, 104.0789 33.67631, 104.0989 33.6~
##  6 广东省         MULTIPOLYGON (((113.6739 22.66379, 113.6655 22.68015, 113.646~
##  7 广西壮族自治区 MULTIPOLYGON (((109.083 21.0469, 109.0866 21.03204, 109.085 2~
##  8 贵州省         MULTIPOLYGON (((108.302 25.51802, 108.3148 25.53725, 108.3401~
##  9 海南省         MULTIPOLYGON (((110.2262 20.06673, 110.2322 20.06196, 110.244~
## 10 河北省         MULTIPOLYGON (((117.667 39.38564, 117.663 39.411, 117.6373 39~
## # ... with 26 more rows

china_dat %>% as_tibble() %>%   select(1) #绑定解除

## # A tibble: 36 x 1
##    Name_Province 
##    <chr>         
##  1 安徽省        
##  2 澳门特别行政区
##  3 北京市        
##  4 福建省        
##  5 甘肃省        
##  6 广东省        
##  7 广西壮族自治区
##  8 贵州省        
##  9 海南省        
## 10 河北省        
## # ... with 26 more rows
…
china_dat %>% st_set_crs(3857) #更改CRS属性，不计算，gfc不变

## Warning: st_crs<- : replacing crs does not reproject data; use st_transform for
## that

## Simple feature collection with 36 features and 2 fields
## Geometry type: GEOMETRY
## Dimension:     XY
## Bounding box:  xmin: 73.50078 ymin: 3.553559 xmax: 134.7752 ymax: 53.56082
## Projected CRS: WGS 84 / Pseudo-Mercator
## # A tibble: 36 x 3
##    Name_Province  Code_Province                                         geometry
##  * <chr>          <chr>                                           <GEOMETRY [m]>
##  1 安徽省         34            POLYGON ((119.1702 31.2955, 119.1528 31.29677, ~
##  2 澳门特别行政区 82            MULTIPOLYGON (((113.5348 22.19369, 113.5325 22.~
##  3 北京市         11            POLYGON ((115.961 40.2643, 115.9576 40.25636, 1~
##  4 福建省         35            MULTIPOLYGON (((119.4823 25.35403, 119.4669 25.~
##  5 甘肃省         62            POLYGON ((104.0702 33.67677, 104.0789 33.67631,~
##  6 广东省         44            MULTIPOLYGON (((113.6739 22.66379, 113.6655 22.~
##  7 广西壮族自治区 45            MULTIPOLYGON (((109.083 21.0469, 109.0866 21.03~
##  8 贵州省         52            MULTIPOLYGON (((108.302 25.51802, 108.3148 25.5~
##  9 海南省         46            MULTIPOLYGON (((110.2262 20.06673, 110.2322 20.~
## 10 河北省         13            MULTIPOLYGON (((117.667 39.38564, 117.663 39.41~
## # ... with 26 more rows

china_dat %>% st_transform(3857) #重新投影，gfc变化

## Simple feature collection with 36 features and 2 fields
## Geometry type: GEOMETRY
## Dimension:     XY
## Bounding box:  xmin: 8182069 ymin: 395834.3 xmax: 15003110 ymax: 7087415
## Projected CRS: WGS 84 / Pseudo-Mercator
## # A tibble: 36 x 3
##    Name_Province  Code_Province                                         geometry
##  * <chr>          <chr>                                           <GEOMETRY [m]>
##  1 安徽省         34            POLYGON ((13265965 3671186, 13264033 3671350, 1~
##  2 澳门特别行政区 82            MULTIPOLYGON (((12638632 2534796, 12638384 2533~
##  3 北京市         11            POLYGON ((12908715 4904424, 12908338 4903267, 1~
##  4 福建省         35            MULTIPOLYGON (((13300705 2919292, 13298992 2918~
##  5 甘肃省         62            POLYGON ((11585041 3985482, 11586011 3985421, 1~
##  6 广东省         44            MULTIPOLYGON (((12654123 2591410, 12653183 2593~
##  7 广西壮族自治区 45            MULTIPOLYGON (((12143065 2397471, 12143470 2395~
##  8 贵州省         52            MULTIPOLYGON (((12056128 2939507, 12057548 2941~
##  9 海南省         46            MULTIPOLYGON (((12270323 2280938, 12270989 2280~
## 10 河北省         13            MULTIPOLYGON (((13098626 4777063, 13098181 4780~
## # ... with 26 more rows
…
